{
    "Patient Code (from Aetonix)" : {
        "target_field": "patient_id"
    },
    "Patient Gender": {
        "target_field": "gender"
    },
    "Patient DOB": {
        "target_field": "date_of_birth"
    },
    "Patient Diagnosis": {
        "target_field": "primary_diagnosis"
    },
    "Patient Postal Code": {
        "target_field": "postal_code"
    },
    "Family Doctor Attachment": {
        "target_field": "family_doctor_attachment"
    },
    "Family Doctor Name": {
        "target_field": "family_doctor_name"
    },
    "Family Doctor Location": {
        "target_field": "family_doctor_location"
    },
    "ReferralDate": {
        "target_field": "referral_date"
    },
    "Referring Source": {
        "target_field": "referral_source_type"
    },
    "Referral Source Name": {
        "target_field": "referral_source_name"
    },
    "Referral Outcome": {
        "target_field": "referral_source_outcome"
    },
    "Enrolment Date": {
        "target_field": "enrollment_date"
    },
    "HomeVisitDate": {
        "target_field": "home_visit_date"
    },
    "Discharge Date": {
        "target_field": "discharge_date"
    },
    "DischargeReason": {
        "target_field": "discharge_reason"
    }
}